<?xml version="1.0" encoding="utf-8"?>
<!-- Generator: Adobe Illustrator 23.1.0, SVG Export Plug-In . SVG Version: 6.00 Build 0)  -->
<svg version="1.1" id="Layer_1" xmlns="http://www.w3.org/2000/svg" xmlns:xlink="http://www.w3.org/1999/xlink" x="0px" y="0px"
	 viewBox="0 0 100 100" style="enable-background:new 0 0 100 100;" xml:space="preserve">
<style type="text/css">
	.st0{fill:none;stroke:#000000;}
</style>
<g id="Welcome">
	<g id="Home-Page" transform="translate(-933.000000, -3281.000000)">
		<g id="award" transform="translate(934.000000, 3282.000000)">
			<g>
				<circle id="Oval" class="st0" cx="49.22" cy="37.14" r="37.14"/>
			</g>
			<g transform="translate(10.000000, 49.000000)">
				<g id="Group">
					<path id="Path" class="st0" d="M15.73,16.48v29.4c0,2.36,1.84,3.54,4.07,2.36l18.9-9.97"/>
					<path class="st0" d="M61.13,18.19v29.4c0,0.92-1.84,2.1-4.07,0.92l-18.9-9.97"/>
				</g>
			</g>
		</g>
	</g>
</g>
</svg>
