<?xml version="1.0" encoding="utf-8"?>
<!-- Generator: Adobe Illustrator 23.1.0, SVG Export Plug-In . SVG Version: 6.00 Build 0)  -->
<svg version="1.1" id="Layer_1" xmlns="http://www.w3.org/2000/svg" xmlns:xlink="http://www.w3.org/1999/xlink" x="0px" y="0px"
	 viewBox="0 0 100 100" style="enable-background:new 0 0 100 100;" xml:space="preserve">
<style type="text/css">
	.st0{fill:none;stroke:#000000;}
</style>
<g id="Welcome">
	<g id="Home-Page" transform="translate(-671.000000, -2818.000000)">
		<g id="building" transform="translate(671.000000, 2819.000000)">
			<path id="Path" class="st0" d="M1,86.02h98"/>
			<polyline class="st0" points="14.13,86.02 14.13,27.42 54.55,12.27 54.55,86.02 			"/>
			<polyline class="st0" points="85.87,86.02 85.87,43.58 55.56,34.49 			"/>
		</g>
	</g>
</g>
</svg>
