<?xml version="1.0" encoding="utf-8"?>
<!-- Generator: Adobe Illustrator 23.1.0, SVG Export Plug-In . SVG Version: 6.00 Build 0)  -->
<svg version="1.1" id="Layer_1" xmlns="http://www.w3.org/2000/svg" xmlns:xlink="http://www.w3.org/1999/xlink" x="0px" y="0px"
	 viewBox="0 0 100 100" style="enable-background:new 0 0 100 100;" xml:space="preserve">
<style type="text/css">
	.st0{fill:none;stroke:#000000;}
</style>
<g id="Welcome">
	<g id="Home-Page" transform="translate(-669.000000, -3049.000000)">
		<g id="cam1" transform="translate(670.000000, 3050.000000)">
			<path id="Path" class="st0" d="M74.51,35.48l19.46-11.06c2.22-1.26,4.03-0.23,4.03,2.29v17.54c0,2.52,0,6.64,0,9.16v17.54
				c0,2.52-1.81,3.55-4.03,2.29L74.51,62.19"/>
			<path class="st0" d="M74.51,80.94c0,2.54-2.08,4.59-4.65,4.59H4.79c-2.57,0-4.65-2.05-4.65-4.59V16.72
				c0-2.53,2.08-4.59,4.65-4.59h65.08c2.57,0,4.65,2.06,4.65,4.59V80.94z"/>
		</g>
	</g>
</g>
</svg>
